\relax 
\citation{krimmer2005bits}
\@writefile{toc}{\contentsline {chapter}{\numberline {3}Remote electronic voting}{3}}
\@writefile{lof}{\addvspace {10\p@ }}
\@writefile{lot}{\addvspace {10\p@ }}
\@writefile{toc}{\contentsline {section}{\numberline {3.1}Difference from other voting types}{3}}
\@writefile{toc}{\contentsline {subsection}{\numberline {3.1.1}Compared to traditional voting types}{3}}
\citation{prosser2004dimensions}
\citation{Thompson:1984:RTT:358198.358210}
\@writefile{toc}{\contentsline {subsection}{\numberline {3.1.2}Compared to supervised e-voting}{4}}
\@writefile{toc}{\contentsline {section}{\numberline {3.2}Sociological considerations and verifiability}{4}}
\@writefile{toc}{\contentsline {subsection}{\numberline {3.2.1}Cryptographic verifiability}{4}}
\newlabel{cvr}{{3.2.1}{4}}
\citation{krimmer2005bits}
\citation{rubin2001security}
\citation{krimmer2005bits}
\@writefile{toc}{\contentsline {section}{\numberline {3.3}Security considerations}{5}}
\@writefile{toc}{\contentsline {subsection}{\numberline {3.3.1}Trojans}{5}}
\@writefile{toc}{\contentsline {subsection}{\numberline {3.3.2}Proxies and Social Engineering}{5}}
\@writefile{toc}{\contentsline {subsection}{\numberline {3.3.3}DDOS Attacks}{5}}
\citation{wiki:votestonia}
\citation{vvkee}
\citation{kim2007electronic}
\citation{alefragis2007mobile}
\@writefile{toc}{\contentsline {section}{\numberline {3.4}Case studies and pilot programs}{6}}
\@writefile{toc}{\contentsline {subsection}{\numberline {3.4.1}GI private election}{6}}
\@writefile{toc}{\contentsline {subsection}{\numberline {3.4.2}Estonia}{6}}
\@writefile{toc}{\contentsline {subsection}{\numberline {3.4.3}Mobile based voting}{6}}
\citation{grewal2013caveat}
\@writefile{toc}{\contentsline {subsection}{\numberline {3.4.4}Caveat Coercitor}{7}}
\newlabel{cc}{{3.4.4}{7}}
\@writefile{toc}{\contentsline {section}{\numberline {3.5}Proposed remote voting system}{7}}
\@writefile{toc}{\contentsline {subsection}{\numberline {3.5.1}Registration and authentication}{7}}
\@writefile{toc}{\contentsline {subsection}{\numberline {3.5.2}Malware prevention}{8}}
\@writefile{toc}{\contentsline {subsection}{\numberline {3.5.3}Man-in-the middle prevention}{8}}
\citation{alefragis2007mobile}
\@writefile{toc}{\contentsline {subsection}{\numberline {3.5.4}Fraud detection and prevention}{9}}
\@writefile{toc}{\contentsline {subsubsection}{Coercion detection}{9}}
\@writefile{toc}{\contentsline {subsubsection}{Identical ballots}{9}}
\@writefile{toc}{\contentsline {subsection}{\numberline {3.5.5}Conclusions - Applied cryptographic verifiability}{9}}
\@setckpt{calina}{
\setcounter{page}{11}
\setcounter{equation}{0}
\setcounter{enumi}{0}
\setcounter{enumii}{0}
\setcounter{enumiii}{0}
\setcounter{enumiv}{0}
\setcounter{footnote}{0}
\setcounter{mpfootnote}{0}
\setcounter{part}{0}
\setcounter{chapter}{3}
\setcounter{section}{5}
\setcounter{subsection}{5}
\setcounter{subsubsection}{0}
\setcounter{paragraph}{0}
\setcounter{subparagraph}{0}
\setcounter{figure}{0}
\setcounter{table}{0}
}
