\relax 
\@writefile{toc}{\contentsline {chapter}{\numberline {1}General considerations}{1}}
\@writefile{lof}{\addvspace {10\p@ }}
\@writefile{lot}{\addvspace {10\p@ }}
\@writefile{toc}{\contentsline {section}{\numberline {1.1}Electronic voting}{1}}
\@writefile{toc}{\contentsline {section}{\numberline {1.2}Types of e-voting}{1}}
\@writefile{toc}{\contentsline {chapter}{\numberline {2}Supervised electronic voting}{2}}
\@writefile{lof}{\addvspace {10\p@ }}
\@writefile{lot}{\addvspace {10\p@ }}
\@input{avram.aux}
\@input{calina.aux}
\bibstyle{IEEEtran}
\bibdata{bibl}
\bibcite{krimmer2005bits}{1}
\bibcite{prosser2004dimensions}{2}
\bibcite{Thompson:1984:RTT:358198.358210}{3}
\bibcite{rubin2001security}{4}
\bibcite{wiki:votestonia}{5}
\bibcite{vvkee}{6}
\bibcite{kim2007electronic}{7}
\bibcite{alefragis2007mobile}{8}
\bibcite{grewal2013caveat}{9}
