This is BibTeX, Version 0.99d (TeX Live 2013/Debian)
Capacity: max_strings=35307, hash_size=35307, hash_prime=30011
The top-level auxiliary file: referat.aux
A level-1 auxiliary file: avram.aux
A level-1 auxiliary file: calina.aux
The style file: IEEEtran.bst
Reallocated singl_function (elt_size=4) to 100 items from 50.
Reallocated singl_function (elt_size=4) to 100 items from 50.
Reallocated singl_function (elt_size=4) to 100 items from 50.
Reallocated wiz_functions (elt_size=4) to 6000 items from 3000.
Reallocated singl_function (elt_size=4) to 100 items from 50.
Database file #1: bibl.bib
-- IEEEtran.bst version 1.13 (2008/09/30) by Michael Shell.
-- http://www.michaelshell.org/tex/ieeetran/bibtex/
-- See the "IEEEtran_bst_HOWTO.pdf" manual for usage information.

Done.
You've used 9 entries,
            4039 wiz_defined-function locations,
            868 strings with 8690 characters,
and the built_in function-call counts, 5943 in all, are:
= -- 481
> -- 109
< -- 44
+ -- 60
- -- 17
* -- 278
:= -- 939
add.period$ -- 19
call.type$ -- 9
change.case$ -- 11
chr.to.int$ -- 108
cite$ -- 9
duplicate$ -- 430
empty$ -- 505
format.name$ -- 22
if$ -- 1340
int.to.chr$ -- 0
int.to.str$ -- 9
missing$ -- 75
newline$ -- 56
num.names$ -- 9
pop$ -- 185
preamble$ -- 1
purify$ -- 0
quote$ -- 2
skip$ -- 463
stack$ -- 0
substring$ -- 265
swap$ -- 326
text.length$ -- 8
text.prefix$ -- 0
top$ -- 5
type$ -- 9
warning$ -- 0
while$ -- 29
width$ -- 10
write$ -- 110
